         run       event       nTopo   nIdTracks       nJets      nMuons
      330470  1183722158           1           0           0           0
      330470  1183722342         394         406          20           0
      330470  1183727953         532         566          11           4
      330470  1183732647         467         449          13           1
      330470  1183733040         381         284           6           1
      330470  1183734651         361         357          14           3
      330470  1183735332         406         371           9           1
      330470  1183736475         741         647          15           3
      330470  1183738728           1           0           0           0
      330470  1183738949         368         421           9           1
      330470  1183742489         152         123           2           1
      330470  1183743040         285         305           5           0
      330470  1183746343         492         459          14           0
      330470  1183746710           6           0           0           0
      330470  1183751782         239         231           5           0
      330470  1183752624         347         338           8           3
      330470  1183753006         357         375          11           3
      330470  1183754806         470         404          15           0
      330470  1183769295         342         317           8           2
      330470  1183769939         348         341          11           3
      330470  1183773832         307         199           7           0
      330470  1183775209          57           0           0           0
      330470  1183787124         431         359          11           2
      330470  1183787946         321         310           5           1
      330470  1183795329         458         331          18           0
